,title,movieId,userRating
1,"Thirteen Days (2000) - Drama, Thriller, War, ",4033,0.4
2,"Starship Troopers 3: Marauder (2008) - Action, Sci-Fi, War, ",64508,0.4
3,"Grand Illusion (La grande illusion) (1937) - Drama, War, ",3134,0.4
4,"Paradise Now (2005) - Drama, Crime, Thriller, War, ",41527,0.4
5,"Gardens of Stone (1987) - Drama, War, ",4111,0.4
6,"Salvador (1986) - Drama, Thriller, War, ",4407,0.4
7,"Rome, Open City (a.k.a. Open City) (Roma, città aperta) (1945) - Drama, War, ",5304,0.4
8,"African Queen, The (1951) - Adventure, Comedy, Romance, War, ",969,0.4
9,"Valkyrie (2008) - Drama, Thriller, War, ",64983,0.4
10,"Year of Living Dangerously, The (1982) - Romance, Drama, War, ",2919,0.4
11,"Starship Troopers 2: Hero of the Federation (2004) - Action, Horror, Sci-Fi, War, ",27793,0.4
12,"Murphy's War (1971) - War, ",6498,0.4
