,title,movieId,userRating
0,Toy Story (1995),1,0.8
1,Jumanji (1995),2,0.7
2,GoldenEye (1995),10,0.6
3,Mortal Kombat (1995),44,0.4
4,Apollo 13 (1995),150,0.9
5,From Dusk Till Dawn (1996),70,0.8
6,Castle Freak (1995),220,0.8
7,Beyond Bedlam (1993),285,1.0
8,Village of the Damned (1995),332,0.9
9,Wolf (1994),382,0.6
10,Casino (1995),16,0.7
11,Othello (1995),26,0.7
12,Dangerous Minds (1995),31,0.8
13,Beauty of the Day (Belle de jour) (1967),154,0.4
14,Fearless (1993),448,1.0
15,Ed (1996),619,0.6
16,Sgt. Bilko (1996),637,0.6
17,Angus (1995),700,1.0
18,Space Jam (1996),673,0.8
19,High School High (1996),833,0.7
20,Breakdown (1997),1518,0.7
21,Con Air (1997),1552,0.6
22,Air Force One (1997),1608,0.8
23,"Jackal, The (1997)",1687,0.4
24,Hush (1998),1798,0.7
25,"Yards, The (2000)",2769,0.6
26,Coogan's Bluff (1968),3427,0.4
27,True Believer (1989),4279,0.6
28,"Enforcer, The (1976)",4945,0.7
29,"American Crime, An (2007)",59418,0.8
30,Nico Icon (1995),77,0.6
31,Catwalk (1996),108,0.4
32,"War Room, The (1993)",556,0.2
33,Snowriders (1996),1145,1.0
34,Everest (1998),1797,0.9
