,title,movieId,userRating
0,Toy Story (1995),1,1.0
1,Jumanji (1995),2,1.0
2,GoldenEye (1995),10,1.0
3,Mortal Kombat (1995),44,1.0
4,Apollo 13 (1995),150,1.0
5,From Dusk Till Dawn (1996),70,0.8
6,Castle Freak (1995),220,0.5599999999999999
7,Beyond Bedlam (1993),285,0.6799999999999999
8,Village of the Damned (1995),332,0.48
9,Wolf (1994),382,0.6
10,Casino (1995),16,0.8
11,Othello (1995),26,0.6
12,Dangerous Minds (1995),31,0.7
13,Beauty of the Day (Belle de jour) (1967),154,0.7
14,Fearless (1993),448,0.7
15,Ed (1996),619,1.0
16,Sgt. Bilko (1996),637,0.8
17,Angus (1995),700,0.6
18,Space Jam (1996),673,0.48
19,High School High (1996),833,0.24
20,Breakdown (1997),1518,0.4
21,Con Air (1997),1552,0.6
22,Air Force One (1997),1608,0.8
23,"Jackal, The (1997)",1687,1.0
24,Hush (1998),1798,0.8
25,"Yards, The (2000)",2769,0.6
26,Coogan's Bluff (1968),3427,0.6
27,True Believer (1989),4279,0.4
28,"Enforcer, The (1976)",4945,0.6
29,"American Crime, An (2007)",59418,0.6799999999999999
30,Nico Icon (1995),77,0.9
31,Catwalk (1996),108,0.45999999999999996
32,"War Room, The (1993)",556,0.45999999999999996
33,Snowriders (1996),1145,0.8400000000000001
34,Everest (1998),1797,0.8
