,title,movieId,userRating
0,Toy Story (1995),1,0.27999999999999997
1,Jumanji (1995),2,0.54
2,GoldenEye (1995),10,0.9800000000000001
3,Mortal Kombat (1995),44,1.0
4,Apollo 13 (1995),150,0.6599999999999999
5,From Dusk Till Dawn (1996),70,0.96
6,Castle Freak (1995),220,0.5599999999999999
7,Beyond Bedlam (1993),285,0.8
8,Village of the Damned (1995),332,0.42000000000000004
9,Wolf (1994),382,0.38
10,Casino (1995),16,0.33999999999999997
11,Othello (1995),26,0.74
12,Dangerous Minds (1995),31,0.82
13,Beauty of the Day (Belle de jour) (1967),154,0.58
14,Fearless (1993),448,1.0
15,Ed (1996),619,0.32
16,Sgt. Bilko (1996),637,0.44000000000000006
17,Angus (1995),700,1.0
18,Space Jam (1996),673,0.9199999999999999
19,High School High (1996),833,0.78
20,Breakdown (1997),1518,0.9
21,Con Air (1997),1552,0.96
22,Air Force One (1997),1608,0.2
23,"Jackal, The (1997)",1687,0.4
24,Hush (1998),1798,0.6
25,"Yards, The (2000)",2769,0.86
26,Coogan's Bluff (1968),3427,0.6599999999999999
27,True Believer (1989),4279,0.32
28,"Enforcer, The (1976)",4945,0.4
29,"American Crime, An (2007)",59418,1.0
30,Nico Icon (1995),77,0.9400000000000001
31,Catwalk (1996),108,0.8
32,"War Room, The (1993)",556,1.0
33,Snowriders (1996),1145,0.4
34,Everest (1998),1797,0.54
